-------------------------------------------------------------------------------
Test set: com.example.employeespringbootwebapp.EmployeeSpringBootWebappApplicationTests
-------------------------------------------------------------------------------
Tests run: 1, Failures: 0, Errors: 0, Skipped: 0, Time elapsed: 5.385 s - in com.example.employeespringbootwebapp.EmployeeSpringBootWebappApplicationTests
